{
  "count": 132,
  "next": "https://vbos-backend.ds.io/api/v1/tabular/91/data/?page=2",
  "previous": null,
  "results": [
    {
      "id": 53551,
      "attribute": "ecce",
      "date": "2023-02-01",
      "value": 479,
      "Day": "28.0",
      "Unit": "number",
      "Source": "Minsitry of Education and Training ",
      "Country": "",
      "Measure": "",
      "Village": "",
      "National": "Vanuatu",
      "Agriculture": "",
      "Hazard Type": "Cyclone",
      "Blue Economy": "",
      "Climate Change": "",
      "Year Collected": "2024.0",
      "Past Hazard Events": "",
      "International Trade": "",
      "Frequency Collection": "Annually",
      "Hazard Response & Recovery": ""
    },
    {
      "id": 53552,
      "attribute": "primary ",
      "date": "2023-02-01",
      "value": 361,
      "Day": "28.0",
      "Unit": "number",
      "Source": "Minsitry of Education and Training ",
      "Country": "",
      "Measure": "",
      "Village": "",
      "National": "Vanuatu",
      "Agriculture": "",
      "Hazard Type": "Cyclone",
      "Blue Economy": "",
      "Climate Change": "",
      "Year Collected": "2024.0",
      "Past Hazard Events": "",
      "International Trade": "",
      "Frequency Collection": "Annually",
      "Hazard Response & Recovery": ""
    },
    {
      "id": 53553,
      "attribute": "secondary",
      "date": "2023-02-01",
      "value": 113,
      "Day": "28.0",
      "Unit": "number",
      "Source": "Minsitry of Education and Training ",
      "Country": "",
      "Measure": "",
      "Village": "",
      "National": "Vanuatu",
      "Agriculture": "",
      "Hazard Type": "Cyclone",
      "Blue Economy": "",
      "Climate Change": "",
      "Year Collected": "2024.0",
      "Past Hazard Events": "",
      "International Trade": "",
      "Frequency Collection": "Annually",
      "Hazard Response & Recovery": ""
    },
    {
      "id": 53554,
      "attribute": "ecce",
      "date": "2023-02-01",
      "value": 24,
      "province": "MALAMPA",
      "Day": "28.0",
      "Unit": "number",
      "Source": "Minsitry of Education and Training ",
      "Country": "",
      "Measure": "",
      "Village": "",
      "National": "Vanuatu",
      "Agriculture": "",
      "Hazard Type": "Cyclone",
      "Blue Economy": "",
      "Climate Change": "",
      "Year Collected": "2024.0",
      "Past Hazard Events": "",
      "International Trade": "",
      "Frequency Collection": "Annually",
      "Hazard Response & Recovery": ""
    },
    {
      "id": 53555,
      "attribute": "primary ",
      "date": "2023-02-01",
      "value": 17,
      "province": "MALAMPA",
      "Day": "28.0",
      "Unit": "number",
      "Source": "Minsitry of Education and Training ",
      "Country": "",
      "Measure": "",
      "Village": "",
      "National": "Vanuatu",
      "Agriculture": "",
      "Hazard Type": "Cyclone",
      "Blue Economy": "",
      "Climate Change": "",
      "Year Collected": "2024.0",
      "Past Hazard Events": "",
      "International Trade": "",
      "Frequency Collection": "Annually",
      "Hazard Response & Recovery": ""
    },
    {
      "id": 53556,
      "attribute": "secondary",
      "date": "2023-02-01",
      "value": 5,
      "province": "MALAMPA",
      "Day": "28.0",
      "Unit": "number",
      "Source": "Minsitry of Education and Training ",
      "Country": "",
      "Measure": "",
      "Village": "",
      "National": "Vanuatu",
      "Agriculture": "",
      "Hazard Type": "Cyclone",
      "Blue Economy": "",
      "Climate Change": "",
      "Year Collected": "2024.0",
      "Past Hazard Events": "",
      "International Trade": "",
      "Frequency Collection": "Annually",
      "Hazard Response & Recovery": ""
    },
    {
      "id": 53557,
      "attribute": "ecce",
      "date": "2023-02-01",
      "value": 133,
      "province": "SHEFA",
      "Day": "28.0",
      "Unit": "number",
      "Source": "Minsitry of Education and Training ",
      "Country": "",
      "Measure": "",
      "Village": "",
      "National": "Vanuatu",
      "Agriculture": "",
      "Hazard Type": "Cyclone",
      "Blue Economy": "",
      "Climate Change": "",
      "Year Collected": "2024.0",
      "Past Hazard Events": "",
      "International Trade": "",
      "Frequency Collection": "Annually",
      "Hazard Response & Recovery": ""
    },
    {
      "id": 53558,
      "attribute": "primary ",
      "date": "2023-02-01",
      "value": 132,
      "province": "SHEFA",
      "Day": "28.0",
      "Unit": "number",
      "Source": "Minsitry of Education and Training ",
      "Country": "",
      "Measure": "",
      "Village": "",
      "National": "Vanuatu",
      "Agriculture": "",
      "Hazard Type": "Cyclone",
      "Blue Economy": "",
      "Climate Change": "",
      "Year Collected": "2024.0",
      "Past Hazard Events": "",
      "International Trade": "",
      "Frequency Collection": "Annually",
      "Hazard Response & Recovery": ""
    },
    {
      "id": 53559,
      "attribute": "secondary",
      "date": "2023-02-01",
      "value": 57,
      "province": "SHEFA",
      "Day": "28.0",
      "Unit": "number",
      "Source": "Minsitry of Education and Training ",
      "Country": "",
      "Measure": "",
      "Village": "",
      "National": "Vanuatu",
      "Agriculture": "",
      "Hazard Type": "Cyclone",
      "Blue Economy": "",
      "Climate Change": "",
      "Year Collected": "2024.0",
      "Past Hazard Events": "",
      "International Trade": "",
      "Frequency Collection": "Annually",
      "Hazard Response & Recovery": ""
    },
    {
      "id": 53560,
      "attribute": "ecce",
      "date": "2023-02-01",
      "value": 113,
      "province": "TAFEA",
      "Day": "28.0",
      "Unit": "number",
      "Source": "Minsitry of Education and Training ",
      "Country": "",
      "Measure": "",
      "Village": "",
      "National": "Vanuatu",
      "Agriculture": "",
      "Hazard Type": "Cyclone",
      "Blue Economy": "",
      "Climate Change": "",
      "Year Collected": "2024.0",
      "Past Hazard Events": "",
      "International Trade": "",
      "Frequency Collection": "Annually",
      "Hazard Response & Recovery": ""
    },
    {
      "id": 53561,
      "attribute": "primary ",
      "date": "2023-02-01",
      "value": 75,
      "province": "TAFEA",
      "Day": "28.0",
      "Unit": "number",
      "Source": "Minsitry of Education and Training ",
      "Country": "",
      "Measure": "",
      "Village": "",
      "National": "Vanuatu",
      "Agriculture": "",
      "Hazard Type": "Cyclone",
      "Blue Economy": "",
      "Climate Change": "",
      "Year Collected": "2024.0",
      "Past Hazard Events": "",
      "International Trade": "",
      "Frequency Collection": "Annually",
      "Hazard Response & Recovery": ""
    },
    {
      "id": 53562,
      "attribute": "secondary",
      "date": "2023-02-01",
      "value": 24,
      "province": "TAFEA",
      "Day": "28.0",
      "Unit": "number",
      "Source": "Minsitry of Education and Training ",
      "Country": "",
      "Measure": "",
      "Village": "",
      "National": "Vanuatu",
      "Agriculture": "",
      "Hazard Type": "Cyclone",
      "Blue Economy": "",
      "Climate Change": "",
      "Year Collected": "2024.0",
      "Past Hazard Events": "",
      "International Trade": "",
      "Frequency Collection": "Annually",
      "Hazard Response & Recovery": ""
    },
    {
      "id": 53563,
      "attribute": "ecce",
      "date": "2023-02-01",
      "value": 4,
      "province": "MALAMPA",
      "area_council": "North West Malekula",
      "Day": "28.0",
      "Unit": "number",
      "Source": "Minsitry of Education and Training ",
      "Country": "",
      "Measure": "",
      "Village": "",
      "National": "Vanuatu",
      "Agriculture": "",
      "Hazard Type": "Cyclone",
      "Blue Economy": "",
      "Climate Change": "",
      "Year Collected": "2024.0",
      "Past Hazard Events": "",
      "International Trade": "",
      "Frequency Collection": "Annually",
      "Hazard Response & Recovery": ""
    },
    {
      "id": 53564,
      "attribute": "primary ",
      "date": "2023-02-01",
      "value": 3,
      "province": "MALAMPA",
      "area_council": "North West Malekula",
      "Day": "28.0",
      "Unit": "number",
      "Source": "Minsitry of Education and Training ",
      "Country": "",
      "Measure": "",
      "Village": "",
      "National": "Vanuatu",
      "Agriculture": "",
      "Hazard Type": "Cyclone",
      "Blue Economy": "",
      "Climate Change": "",
      "Year Collected": "2024.0",
      "Past Hazard Events": "",
      "International Trade": "",
      "Frequency Collection": "Annually",
      "Hazard Response & Recovery": ""
    },
    {
      "id": 53565,
      "attribute": "secondary",
      "date": "2023-02-01",
      "value": 1,
      "province": "MALAMPA",
      "area_council": "North West Malekula",
      "Day": "28.0",
      "Unit": "number",
      "Source": "Minsitry of Education and Training ",
      "Country": "",
      "Measure": "",
      "Village": "",
      "National": "Vanuatu",
      "Agriculture": "",
      "Hazard Type": "Cyclone",
      "Blue Economy": "",
      "Climate Change": "",
      "Year Collected": "2024.0",
      "Past Hazard Events": "",
      "International Trade": "",
      "Frequency Collection": "Annually",
      "Hazard Response & Recovery": ""
    },
    {
      "id": 53566,
      "attribute": "ecce",
      "date": "2023-02-01",
      "value": 4,
      "province": "MALAMPA",
      "area_council": "North East Malekula",
      "Day": "28.0",
      "Unit": "number",
      "Source": "Minsitry of Education and Training ",
      "Country": "",
      "Measure": "",
      "Village": "",
      "National": "Vanuatu",
      "Agriculture": "",
      "Hazard Type": "Cyclone",
      "Blue Economy": "",
      "Climate Change": "",
      "Year Collected": "2024.0",
      "Past Hazard Events": "",
      "International Trade": "",
      "Frequency Collection": "Annually",
      "Hazard Response & Recovery": ""
    },
    {
      "id": 53567,
      "attribute": "primary ",
      "date": "2023-02-01",
      "value": 2,
      "province": "MALAMPA",
      "area_council": "North East Malekula",
      "Day": "28.0",
      "Unit": "number",
      "Source": "Minsitry of Education and Training ",
      "Country": "",
      "Measure": "",
      "Village": "",
      "National": "Vanuatu",
      "Agriculture": "",
      "Hazard Type": "Cyclone",
      "Blue Economy": "",
      "Climate Change": "",
      "Year Collected": "2024.0",
      "Past Hazard Events": "",
      "International Trade": "",
      "Frequency Collection": "Annually",
      "Hazard Response & Recovery": ""
    },
    {
      "id": 53568,
      "attribute": "secondary",
      "date": "2023-02-01",
      "value": 1,
      "province": "MALAMPA",
      "area_council": "North East Malekula",
      "Day": "28.0",
      "Unit": "number",
      "Source": "Minsitry of Education and Training ",
      "Country": "",
      "Measure": "",
      "Village": "",
      "National": "Vanuatu",
      "Agriculture": "",
      "Hazard Type": "Cyclone",
      "Blue Economy": "",
      "Climate Change": "",
      "Year Collected": "2024.0",
      "Past Hazard Events": "",
      "International Trade": "",
      "Frequency Collection": "Annually",
      "Hazard Response & Recovery": ""
    },
    {
      "id": 53569,
      "attribute": "ecce",
      "date": "2023-02-01",
      "value": 3,
      "province": "MALAMPA",
      "area_council": "Central Malekula",
      "Day": "28.0",
      "Unit": "number",
      "Source": "Minsitry of Education and Training ",
      "Country": "",
      "Measure": "",
      "Village": "",
      "National": "Vanuatu",
      "Agriculture": "",
      "Hazard Type": "Cyclone",
      "Blue Economy": "",
      "Climate Change": "",
      "Year Collected": "2024.0",
      "Past Hazard Events": "",
      "International Trade": "",
      "Frequency Collection": "Annually",
      "Hazard Response & Recovery": ""
    },
    {
      "id": 53570,
      "attribute": "primary ",
      "date": "2023-02-01",
      "value": 2,
      "province": "MALAMPA",
      "area_council": "Central Malekula",
      "Day": "28.0",
      "Unit": "number",
      "Source": "Minsitry of Education and Training ",
      "Country": "",
      "Measure": "",
      "Village": "",
      "National": "Vanuatu",
      "Agriculture": "",
      "Hazard Type": "Cyclone",
      "Blue Economy": "",
      "Climate Change": "",
      "Year Collected": "2024.0",
      "Past Hazard Events": "",
      "International Trade": "",
      "Frequency Collection": "Annually",
      "Hazard Response & Recovery": ""
    }
  ]
}
